…
###### Violin plot of cell subtypes

(and significance of a Wilcoxon adjusted test according to the
expression level \[high or low\] of a selected gene)

``` r
(df <- convert2biodata(
  algorithm = "Cibersort_ABS",
  disease = "breast invasive carcinoma",
  tissue = "Primary Tumor",
  gene_x = "ICOS"
))
#> # A tibble: 24,046 x 3
#>    high  cell_type      value
#>  * <fct> <fct>          <dbl>
#>  1 Low   B_cell_naive 0.00001
#>  2 High  B_cell_naive 0.00755
#>  3 High  B_cell_naive 0.00521
#>  4 Low   B_cell_naive 0.00001
#>  5 Low   B_cell_naive 0.00521
#>  6 High  B_cell_naive 0.00675
#>  7 High  B_cell_naive 0.00853
#>  8 Low   B_cell_naive 0.00001
#>  9 Low   B_cell_naive 0.00001
#> 10 High  B_cell_naive 0.0297 
#> # … with 24,036 more rows
…
###### Advanced parameters

``` r
(df <- convert2biodata(
  algorithm = "Cibersort_ABS",
  disease = "breast invasive carcinoma",
  tissue = "Primary Tumor",
  gene_x = "ICOS",
  stat = "quantile"
))
#> # A tibble: 11,990 x 3
#>    high  cell_type      value
#>  * <fct> <fct>          <dbl>
#>  1 25%   B_cell_naive 0.00001
#>  2 75%   B_cell_naive 0.00853
#>  3 25%   B_cell_naive 0.00001
#>  4 25%   B_cell_naive 0.00001
#>  5 25%   B_cell_naive 0.0196 
#>  6 25%   B_cell_naive 0.0443 
#>  7 25%   B_cell_naive 0.0118 
#>  8 75%   B_cell_naive 0.00529
#>  9 25%   B_cell_naive 0.0236 
#> 10 25%   B_cell_naive 0.00001
#> # … with 11,980 more rows
…
