Tutorial
…
Advanced parameters

With ggplot2::theme() expressions.

(df <- convert2biodata(
  algorithm = "Cibersort_ABS",
  disease = "breast invasive carcinoma",
  tissue = "Primary Tumor",
  gene_x = "ICOS",
  stat = "quantile"
))
#> # A tibble: 352 x 3
#>    high  cell_type      value
#>  * <fct> <fct>          <dbl>
#>  1 25%   B_cell_naive 0.00001
#>  2 75%   B_cell_naive 0.0274 
#>  3 25%   B_cell_naive 0.0146 
#>  4 75%   B_cell_naive 0.0112 
#>  5 25%   B_cell_naive 0.0141 
#>  6 25%   B_cell_naive 0.00546
#>  7 75%   B_cell_naive 0.0289 
#>  8 75%   B_cell_naive 0.00376
#>  9 25%   B_cell_naive 0.00001
#> 10 75%   B_cell_naive 0.00118
#> # … with 342 more rows
…
